{
  "extends": ["tslint:recommended", "tslint-config-prettier"],
  "rules": {
    "max-line-length": {
      "options": [120]
    },
    "object-literal-sort-keys": false,
    "no-console": {
      "severity": "warning",
      "options": ["debug", "info", "time", "timeEnd", "trace"]
    }
  }
}
